…
# structure data: Response indicating the proportion of subjects with each response
Percentage <- 
  brfss_df  %>%
  filter(response == "Excellent"  | response == "Very good" | response == "Good" | response == "Fair" | response == "Poor") %>% 
  spread(key = response, value = data_value) %>% 
  janitor::clean_names() %>% 
# create a new variable showing the proportion of responses that were “Excellent” or “Very Good”
  mutate(Ex_good = excellent + very_good) 

# unique locations: Every state is represented in the dataset as there are 51 distinct states in the dataframe.
brfss_df %>% 
   distinct(., locationabbr, .keep_all = TRUE)
```

    ## # A tibble: 51 x 5
    ##     year locationabbr locationdesc              response  data_value
    ##    <int> <chr>        <chr>                     <chr>          <dbl>
    ##  1  2010 AL           AL - Jefferson County     Excellent       18.9
    ##  2  2010 AZ           AZ - Maricopa County      Excellent       27.3
    ##  3  2010 AR           AR - Benton County        Excellent       23.1
    ##  4  2010 CA           CA - Alameda County       Excellent       24  
    ##  5  2010 CO           CO - Adams County         No              92.2
    ##  6  2010 CT           CT - Fairfield County     Excellent       29.5
    ##  7  2010 DE           DE - Kent County          Excellent       18.2
    ##  8  2010 DC           DC - District of Columbia Excellent       26.1
    ##  9  2010 FL           FL - Alachua County       Excellent       29.3
    ## 10  2010 GA           GA - Cobb County          Yes              0.7
    ## # ... with 41 more rows

``` r
# The most observed one in the dataframe is FL.
brfss_df %>% 
  group_by(locationabbr) %>% 
  summarize(n = n()) 
```

    ## # A tibble: 51 x 2
    ##    locationabbr     n
    ##    <chr>        <int>
    ##  1 AK             664
    ##  2 AL            1164
    ##  3 AR            1351
    ##  4 AZ            2013
    ##  5 CA            3433
    ##  6 CO            3733
    ##  7 CT            2861
    ##  8 DC             556
    ##  9 DE            1668
    ## 10 FL            7978
    ## # ... with 41 more rows
…
